%YAML 1.1
%TAG !u! tag:unity3d.com,2011:
--- !u!1045 &1
EditorBuildSettings:
  m_ObjectHideFlags: 0
  serializedVersion: 2
  m_Scenes:
  - enabled: 1
    path: Assets/Scenes/Flash.unity
    guid: 05fa1cc8bc084fe4692485b39ba93432
  - enabled: 1
    path: Assets/Scenes/MainMenu.unity
    guid: 8082146ed49a0f84982863be7956720e
  - enabled: 0
    path: Assets/Scenes/GamePlay.unity
    guid: 494560bebdea05340b171ed52c88275c
  - enabled: 1
    path: Assets/Scenes/GamePlay_NaptechGames.unity
    guid: 32b79c10336d9f9459cb24eec97a4aa5
  - enabled: 0
    path: Assets/Scenes/GamePlay (Multiplayer).unity
    guid: a05481618d6a6d9488e60b34b5d0c0ad
  - enabled: 1
    path: Assets/Scenes/GamePlay (Multiplayer)NapTechGames.unity
    guid: 537176c6bacca0c44b523df2f2351e5b
  - enabled: 0
    path: Assets/Scenes/GamePlay Two Friends.unity
    guid: 664b592976945a9499ca3b0793f974f7
  - enabled: 1
    path: Assets/Scenes/GamePlay Two Friends_NaptechGames.unity
    guid: 9b61336b42bda6b459da72199208092b
  m_configObjects: {}
